…
Pull-out a few columns to create a new table

Rearrange or change the order of columns

Drop columns with a minus sign: -column_name

library(dplyr)
library(readr)

scrap <- read_csv("https://itep-r.netlify.com/data/starwars_scrap_jakku.csv")

# Drop the destination column
select(scrap, -destination)

## # A tibble: 222 x 5
##    item                             origin     amount units price_per_pound
##    <chr>                            <chr>       <dbl> <chr>           <dbl>
##  1 Flight recorder                  Outskirts     887 Tons             591.
##  2 Proximity sensor                 Outskirts    7081 Tons            1229.
##  3 Vitus-Series Attitude Thrusters  Reestki      4901 Tons             226.
##  4 Aural sensor                     Tuanul        707 Tons             145.
##  5 Electromagnetic discharge filter Tuanul        107 Tons             188.
##  6 Proximity sensor                 Tuanul      32109 Tons            1229.
##  7 Hyperdrive motivator             Tuanul        862 Tons            1485.
##  8 Landing jet                      Reestki     13944 Tons            1497.
##  9 Electromagnetic discharge filter Cratertown   7788 Tons             188.
## 10 Sublight engine                  Outskirts   10642 Tons            7211.
## # ... with 212 more rows

Drop multiple columns with -c(col_1, col_2) or -col1, -col2

# Drop the destination and units columns
select(scrap, -c(destination, units, amount))

## # A tibble: 222 x 3
##    item                             origin     price_per_pound
##    <chr>                            <chr>                <dbl>
##  1 Flight recorder                  Outskirts             591.
##  2 Proximity sensor                 Outskirts            1229.
##  3 Vitus-Series Attitude Thrusters  Reestki               226.
##  4 Aural sensor                     Tuanul                145.
##  5 Electromagnetic discharge filter Tuanul                188.
##  6 Proximity sensor                 Tuanul               1229.
##  7 Hyperdrive motivator             Tuanul               1485.
##  8 Landing jet                      Reestki              1497.
##  9 Electromagnetic discharge filter Cratertown            188.
## 10 Sublight engine                  Outskirts            7211.
## # ... with 212 more rows

Keep only three columns

# Keep the item, amount and price_per_pound columns
select(scrap, c(item, amount, price_per_pound))

## # A tibble: 222 x 3
##    item                             amount price_per_pound
##    <chr>                             <dbl>           <dbl>
##  1 Flight recorder                     887            591.
##  2 Proximity sensor                   7081           1229.
##  3 Vitus-Series Attitude Thrusters    4901            226.
##  4 Aural sensor                        707            145.
##  5 Electromagnetic discharge filter    107            188.
##  6 Proximity sensor                  32109           1229.
##  7 Hyperdrive motivator                862           1485.
##  8 Landing jet                       13944           1497.
##  9 Electromagnetic discharge filter   7788            188.
## 10 Sublight engine                   10642           7211.
## # ... with 212 more rows

everything()

select() also works to change the order of columns. The code below puts the item column first and then moves the units and amount columns directly after item. We then keep evertyhing() else the same.

# Make the `item`, `units`, and `amount` columns the first three columns
# Leave `everything()` else in the same order
select(scrap, item, units, amount, everything())

## # A tibble: 222 x 6
##    item                  units amount origin   destination  price_per_pound
##    <chr>                 <chr>  <dbl> <chr>    <chr>                  <dbl>
##  1 Flight recorder       Tons     887 Outskir~ Niima Outpo~            591.
##  2 Proximity sensor      Tons    7081 Outskir~ Raiders                1229.
##  3 Vitus-Series Attitud~ Tons    4901 Reestki  Raiders                 226.
##  4 Aural sensor          Tons     707 Tuanul   Raiders                 145.
##  5 Electromagnetic disc~ Tons     107 Tuanul   Niima Outpo~            188.
##  6 Proximity sensor      Tons   32109 Tuanul   Trade carav~           1229.
##  7 Hyperdrive motivator  Tons     862 Tuanul   Trade carav~           1485.
##  8 Landing jet           Tons   13944 Reestki  Niima Outpo~           1497.
##  9 Electromagnetic disc~ Tons    7788 Cratert~ Raiders                 188.
## 10 Sublight engine       Tons   10642 Outskir~ Niima Outpo~           7211.
## # ... with 212 more rows
…
